<?xml version="1.0" encoding="utf-8"?>
<!-- Generator: Adobe Illustrator 18.1.1, SVG Export Plug-In . SVG Version: 6.00 Build 0)  -->
<svg version="1.1" id="Isolation_Mode" xmlns="http://www.w3.org/2000/svg" xmlns:xlink="http://www.w3.org/1999/xlink" x="0px"
	 y="0px" viewBox="0 0 42.5 29.5" enable-background="new 0 0 42.5 29.5" xml:space="preserve">
<path d="M1.8,3.5h39c1,0,1.8-0.8,1.8-1.8S41.7,0,40.8,0h-39C0.8,0,0,0.8,0,1.8S0.8,3.5,1.8,3.5z"/>
<path d="M40.8,13h-39c-1,0-1.8,0.8-1.8,1.8s0.8,1.8,1.8,1.8h39c1,0,1.8-0.8,1.8-1.8S41.7,13,40.8,13z"/>
<path d="M40.8,26h-39c-1,0-1.8,0.8-1.8,1.8s0.8,1.8,1.8,1.8h39c1,0,1.8-0.8,1.8-1.8S41.7,26,40.8,26z"/>
</svg>
